module audible-alarm-go

go 1.17

require (
	github.com/faiface/beep v1.1.0
	github.com/gin-gonic/gin v1.7.7
	gopkg.in/yaml.v2 v2.2.8
)

require (
	github.com/gin-contrib/sse v0.1.0 // indirect
	github.com/go-playground/locales v0.13.0 // indirect
	github.com/go-playground/universal-translator v0.17.0 // indirect
	github.com/go-playground/validator/v10 v10.4.1 // indirect
	github.com/golang/protobuf v1.3.3 // indirect
	github.com/hajimehoshi/go-mp3 v0.3.0 // indirect
	github.com/hajimehoshi/oto v0.7.1 // indirect
	github.com/json-iterator/go v1.1.9 // indirect
	github.com/leodido/go-urn v1.2.0 // indirect
	github.com/mattn/go-isatty v0.0.12 // indirect
	github.com/modern-go/concurrent v0.0.0-20180228061459-e0a39a4cb421 // indirect
	github.com/modern-go/reflect2 v0.0.0-20180701023420-4b7aa43c6742 // indirect
	github.com/pkg/errors v0.9.1 // indirect
	github.com/ugorji/go/codec v1.1.7 // indirect
	golang.org/x/crypto v0.0.0-20200622213623-75b288015ac9 // indirect
	golang.org/x/exp v0.0.0-20190306152737-a1d7652674e8 // indirect
	golang.org/x/image v0.0.0-20190227222117-0694c2d4d067 // indirect
	golang.org/x/mobile v0.0.0-20190415191353-3e0bab5405d6 // indirect
	golang.org/x/sys v0.0.0-20200116001909-b77594299b42 // indirect
)
